{"frames": {

"eat_1":
{
	"frame": {"x":765,"y":89,"w":90,"h":86},
	"rotated": false,
	"trimmed": true,
	"spriteSourceSize": {"x":4,"y":4,"w":90,"h":86},
	"sourceSize": {"w":100,"h":94}
},
"eat_2":
{
	"frame": {"x":845,"y":1,"w":90,"h":86},
	"rotated": false,
	"trimmed": true,
	"spriteSourceSize": {"x":4,"y":4,"w":90,"h":86},
	"sourceSize": {"w":100,"h":94}
},
"eat_3":
{
	"frame": {"x":857,"y":89,"w":90,"h":86},
	"rotated": false,
	"trimmed": true,
	"spriteSourceSize": {"x":4,"y":4,"w":90,"h":86},
	"sourceSize": {"w":100,"h":94}
},
"eat_4":
{
	"frame": {"x":937,"y":1,"w":90,"h":86},
	"rotated": false,
	"trimmed": true,
	"spriteSourceSize": {"x":4,"y":4,"w":90,"h":86},
	"sourceSize": {"w":100,"h":94}
},
"eat_5":
{
	"frame": {"x":949,"y":89,"w":90,"h":86},
	"rotated": false,
	"trimmed": true,
	"spriteSourceSize": {"x":4,"y":4,"w":90,"h":86},
	"sourceSize": {"w":100,"h":94}
},
"eat_6":
{
	"frame": {"x":296,"y":90,"w":90,"h":85},
	"rotated": false,
	"trimmed": true,
	"spriteSourceSize": {"x":4,"y":4,"w":90,"h":85},
	"sourceSize": {"w":100,"h":94}
},
"eat_7":
{
	"frame": {"x":485,"y":89,"w":92,"h":86},
	"rotated": false,
	"trimmed": true,
	"spriteSourceSize": {"x":3,"y":4,"w":92,"h":86},
	"sourceSize": {"w":100,"h":94}
},
"eat_8":
{
	"frame": {"x":469,"y":1,"w":94,"h":86},
	"rotated": false,
	"trimmed": true,
	"spriteSourceSize": {"x":2,"y":4,"w":94,"h":86},
	"sourceSize": {"w":100,"h":94}
},
"eat_9":
{
	"frame": {"x":565,"y":1,"w":92,"h":86},
	"rotated": false,
	"trimmed": true,
	"spriteSourceSize": {"x":3,"y":4,"w":92,"h":86},
	"sourceSize": {"w":100,"h":94}
},
"hit_1":
{
	"frame": {"x":203,"y":90,"w":91,"h":85},
	"rotated": false,
	"trimmed": true,
	"spriteSourceSize": {"x":5,"y":0,"w":91,"h":85},
	"sourceSize": {"w":100,"h":85}
},
"hit_2":
{
	"frame": {"x":103,"y":91,"w":98,"h":76},
	"rotated": false,
	"trimmed": true,
	"spriteSourceSize": {"x":2,"y":0,"w":98,"h":76},
	"sourceSize": {"w":100,"h":85}
},
"hit_3":
{
	"frame": {"x":1493,"y":88,"w":99,"h":73},
	"rotated": false,
	"trimmed": true,
	"spriteSourceSize": {"x":1,"y":0,"w":99,"h":73},
	"sourceSize": {"w":100,"h":85}
},
"hit_4":
{
	"frame": {"x":1594,"y":1,"w":99,"h":72},
	"rotated": false,
	"trimmed": true,
	"spriteSourceSize": {"x":1,"y":0,"w":99,"h":72},
	"sourceSize": {"w":100,"h":85}
},
"hit_5":
{
	"frame": {"x":1594,"y":75,"w":99,"h":68},
	"rotated": false,
	"trimmed": true,
	"spriteSourceSize": {"x":1,"y":0,"w":99,"h":68},
	"sourceSize": {"w":100,"h":85}
},
"left_1":
{
	"frame": {"x":579,"y":89,"w":91,"h":86},
	"rotated": false,
	"trimmed": true,
	"spriteSourceSize": {"x":4,"y":2,"w":91,"h":86},
	"sourceSize": {"w":95,"h":90}
},
"left_2":
{
	"frame": {"x":1,"y":1,"w":90,"h":88},
	"rotated": false,
	"trimmed": true,
	"spriteSourceSize": {"x":5,"y":1,"w":90,"h":88},
	"sourceSize": {"w":95,"h":90}
},
"left_3":
{
	"frame": {"x":185,"y":1,"w":90,"h":87},
	"rotated": false,
	"trimmed": true,
	"spriteSourceSize": {"x":3,"y":1,"w":90,"h":87},
	"sourceSize": {"w":95,"h":90}
},
"left_4":
{
	"frame": {"x":1121,"y":1,"w":89,"h":86},
	"rotated": false,
	"trimmed": true,
	"spriteSourceSize": {"x":2,"y":1,"w":89,"h":86},
	"sourceSize": {"w":95,"h":90}
},
"left_5":
{
	"frame": {"x":1391,"y":1,"w":88,"h":85},
	"rotated": false,
	"trimmed": true,
	"spriteSourceSize": {"x":1,"y":1,"w":88,"h":85},
	"sourceSize": {"w":95,"h":90}
},
"left_6":
{
	"frame": {"x":1133,"y":89,"w":89,"h":86},
	"rotated": false,
	"trimmed": true,
	"spriteSourceSize": {"x":3,"y":1,"w":89,"h":86},
	"sourceSize": {"w":95,"h":90}
},
"left_7":
{
	"frame": {"x":659,"y":1,"w":91,"h":86},
	"rotated": false,
	"trimmed": true,
	"spriteSourceSize": {"x":4,"y":2,"w":91,"h":86},
	"sourceSize": {"w":95,"h":90}
},
"right_1":
{
	"frame": {"x":1029,"y":1,"w":90,"h":86},
	"rotated": false,
	"trimmed": true,
	"spriteSourceSize": {"x":0,"y":2,"w":90,"h":86},
	"sourceSize": {"w":95,"h":90}
},
"right_2":
{
	"frame": {"x":93,"y":1,"w":90,"h":88},
	"rotated": false,
	"trimmed": true,
	"spriteSourceSize": {"x":0,"y":1,"w":90,"h":88},
	"sourceSize": {"w":95,"h":90}
},
"right_3":
{
	"frame": {"x":277,"y":1,"w":90,"h":87},
	"rotated": false,
	"trimmed": true,
	"spriteSourceSize": {"x":2,"y":1,"w":90,"h":87},
	"sourceSize": {"w":95,"h":90}
},
"right_4":
{
	"frame": {"x":1212,"y":1,"w":89,"h":86},
	"rotated": false,
	"trimmed": true,
	"spriteSourceSize": {"x":4,"y":1,"w":89,"h":86},
	"sourceSize": {"w":95,"h":90}
},
"right_5":
{
	"frame": {"x":1403,"y":88,"w":88,"h":85},
	"rotated": false,
	"trimmed": true,
	"spriteSourceSize": {"x":6,"y":1,"w":88,"h":85},
	"sourceSize": {"w":95,"h":90}
},
"right_6":
{
	"frame": {"x":1224,"y":89,"w":89,"h":86},
	"rotated": false,
	"trimmed": true,
	"spriteSourceSize": {"x":3,"y":1,"w":89,"h":86},
	"sourceSize": {"w":95,"h":90}
},
"right_7":
{
	"frame": {"x":1041,"y":89,"w":90,"h":86},
	"rotated": false,
	"trimmed": true,
	"spriteSourceSize": {"x":0,"y":2,"w":90,"h":86},
	"sourceSize": {"w":95,"h":90}
},
"up_1":
{
	"frame": {"x":672,"y":89,"w":91,"h":86},
	"rotated": false,
	"trimmed": true,
	"spriteSourceSize": {"x":4,"y":18,"w":91,"h":86},
	"sourceSize": {"w":100,"h":120}
},
"up_2":
{
	"frame": {"x":1303,"y":1,"w":86,"h":86},
	"rotated": false,
	"trimmed": true,
	"spriteSourceSize": {"x":7,"y":9,"w":86,"h":86},
	"sourceSize": {"w":100,"h":120}
},
"up_3":
{
	"frame": {"x":1481,"y":1,"w":81,"h":85},
	"rotated": false,
	"trimmed": true,
	"spriteSourceSize": {"x":10,"y":2,"w":81,"h":85},
	"sourceSize": {"w":100,"h":120}
},
"up_4":
{
	"frame": {"x":1315,"y":89,"w":86,"h":86},
	"rotated": false,
	"trimmed": true,
	"spriteSourceSize": {"x":7,"y":8,"w":86,"h":86},
	"sourceSize": {"w":100,"h":120}
},
"up_5":
{
	"frame": {"x":752,"y":1,"w":91,"h":86},
	"rotated": false,
	"trimmed": true,
	"spriteSourceSize": {"x":4,"y":17,"w":91,"h":86},
	"sourceSize": {"w":100,"h":120}
},
"up_6":
{
	"frame": {"x":369,"y":1,"w":98,"h":86},
	"rotated": false,
	"trimmed": true,
	"spriteSourceSize": {"x":1,"y":25,"w":98,"h":86},
	"sourceSize": {"w":100,"h":120}
},
"up_7":
{
	"frame": {"x":1,"y":91,"w":100,"h":84},
	"rotated": false,
	"trimmed": true,
	"spriteSourceSize": {"x":0,"y":31,"w":100,"h":84},
	"sourceSize": {"w":100,"h":120}
},
"up_8":
{
	"frame": {"x":388,"y":89,"w":95,"h":86},
	"rotated": false,
	"trimmed": true,
	"spriteSourceSize": {"x":2,"y":34,"w":95,"h":86},
	"sourceSize": {"w":100,"h":120}
}},
"meta": {
	"app": "http://www.codeandweb.com/texturepacker",
	"version": "1.0",
	"image": "hero.png",
	"format": "INDEXED",
	"size": {"w":1694,"h":176},
	"scale": "1",
	"smartupdate": "$TexturePacker:SmartUpdate:8d22c4a5a1e2968c3c22a1860d282fa6:6ad3a0872d299103b3586614878c325a:eec64b416d3f54b5cb5181ef71d8f236$"
}
}
