{
  "branch-left":{
    "constructor": "Branch",
    "parts": {
      "1": {
        "position": {
            "x":0,
            "y":0
        },
        "x": 0,
        "y": 0,
        "rectangle": {
          "x": 0,
          "y": 0,
          "width": 150,
          "height": 25
        },
        "sprite": "branch"
      }
    }
  },
  "branch-right":{
    "constructor": "Branch",
    "parts": {
      "1": {
        "position": {
            "x":0,
            "y":0
        },
        "x": 1,
        "y": 0,
        "rectangle": {
          "x": 0,
          "y": 0,
          "width": 150,
          "height": 25
        },
        "right": true,
        "sprite": "branch"
      }
    }
  },
  "branch-right-left":{
    "constructor": "Branch",
    "parts": {
      "1": {
        "position": {
            "x":0,
            "y":0
        },
        "x": 0,
        "y": 0,
        "rectangle": {
          "x": 0,
          "y": 0,
          "width": 150,
          "height": 25
        },
        "sprite": "branch_little"
      },
      "2": {
        "position": {
            "x":0,
            "y":0
        },
        "x": 1,
        "y": 0,
        "right": true,
        "rectangle": {
          "x": 0,
          "y": 0,
          "width": 100,
          "height": 25
        },
        "sprite": "branch_little"
      }
    }
  },
  "branch-a":{
    "constructor": "Branch",
    "parts": {
      "1": {
        "position": {
            "x":0,
            "y":0
        },
        "x": 0,
        "y": 0,
        "rectangle": {
          "x": 0,
          "y": 0,
          "width": 100,
          "height": 25
        },
        "sprite": "branch_little"
      },
      "2": {
        "position": {
            "x":0,
            "y":0
        },
        "x": 1,
        "y": 0,
        "rectangle": {
          "x": 0,
          "y": 0,
          "width": 150,
          "height": 25
        },
        "right": true,
        "sprite": "branch_little"
      },
      "3": {
        "position": {
            "x":0,
            "y":0
        },
        "x": 0,
        "y": 100,
        "rectangle": {
          "x": 0,
          "y": 0,
          "width": 150,
          "height": 25
        },
        "sprite": "branch_little"
      },
      "4": {
        "position": {
            "x":0,
            "y":0
        },
        "x": 1,
        "y": 100,
        "rectangle": {
          "x": 0,
          "y": 0,
          "width": 100,
          "height": 25
        },
        "right": true,
        "sprite": "branch"
      }
    }
  },
  "branch-b":{
    "constructor": "Branch",
    "parts": {
      "1": {
        "position": {
            "x":0,
            "y":0
        },
        "x": 0,
        "y": 0,
        "rectangle": {
          "x": 0,
          "y": 0,
          "width": 100,
          "height": 25
        },
        "sprite": "branch_little"
      },
      "2": {
        "position": {
            "x":0,
            "y":0
        },
        "x": 1,
        "y": 0,
        "rectangle": {
          "x": 0,
          "y": 0,
          "width": 100,
          "height": 25
        },
        "right": true,
        "sprite": "branch_little"
      },
      "3": {
        "position": {
            "x":0,
            "y":0
        },
        "x": 0,
        "y": 80,
        "rectangle": {
          "x": 0,
          "y": 0,
          "width": 100,
          "height": 25
        },
        "sprite": "branch"
      },
      "4": {
        "position": {
            "x":0,
            "y":0
        },
        "x": 1,
        "y": 100,
        "rectangle": {
          "x": 0,
          "y": 0,
          "width": 100,
          "height": 25
        },
        "right": true,
        "sprite": "branch_little"
      }
    }
  },
  "grapes":{
    "constructor": "Grapes",
    "parts": {
      "right": {
        "position": {
            "x":60,
            "y":0
        },
        "x": 1,
        "y": 0,
        "deltaPostion": 25,
        "speed": 0.1,
        "right": true,
        "rectangle": {
          "x": 0,
          "y": 0,
          "width": 150,
          "height": 25
        },
        "sprite": "branch"
        },
        "left": {
            "position": {
                "x":-60,
                "y":0
            },
            "x": 0,
            "y": 0,
            "deltaPostion": 25,
            "speed": 0.1,
            "rectangle": {
              "x": 0,
              "y": 0,
              "width": 150,
              "height": 25
            },
            "sprite": "branch"
        }
    }
  }
}
